{
	"key" : "enemy_elf00_SPRITE",
	"subfolder" : "level00",
	"name" : "SPRITE",
	"description" : "low danger",
	"gender" : "NONE",
	"race" : "MONSTER",
	"family" : "mfamily_elf",
	"species" : "SPRITE",
	"appearance" : "4dir_ffl2_human",
	"portrait" : "battle_portraits/goblin.png",
	"meatEatLevel" : 0,
	"meatTargetLevel" : 0,
	"gp" : 40,
	"equipped" : [
		"abil_dive",
		"abil_othunder"
	],
	"stats" : {
		"hp" : 20,
		"mhp" : 20,
		"str" : 3,
		"def" : 2,
		"agi" : 6,
		"mana" : 8,
		"flags" : [ ]
	}
}