{
	"key" : "enemy_snk02_ANACONDA",
	"subfolder" : "level02",
	"name" : "ANACONDA",
	"description" : "Converted from a report",
	"gender" : "NONE",
	"race" : "MONSTER",
	"family" : "mfamily_snk",
	"species" : "ANACONDA",
	"appearance" : "4dir_ffl2_human",
	"portrait" : "battle_portraits/goblin.png",
	"meatEatLevel" : 3,
	"meatTargetLevel" : 2,
	"gp" : 80,
	"equipped" : [
		"abil_bite",
		"abil_tail",
		"abil_constrict",
		"abil_xice"
	],
	"stats" : {
		"hp" : 84,
		"mhp" : 84,
		"str" : 13,
		"def" : 8,
		"agi" : 9,
		"mana" : 6,
		"flags" : [ ]
	}
}