{
	"key" : "enemy_skl07_WARRIOR",
	"subfolder" : "level07",
	"name" : "WARRIOR",
	"description" : "Converted from a report",
	"gender" : "NONE",
	"race" : "MONSTER",
	"family" : "mfamily_skl",
	"species" : "WARRIOR",
	"appearance" : "4dir_ffl2_human",
	"portrait" : "battle_portraits/goblin.png",
	"meatEatLevel" : 8,
	"meatTargetLevel" : 7,
	"gp" : 600,
	"equipped" : [ ],
	"stats" : {
		"hp" : null,
		"mhp" : null,
		"str" : null,
		"def" : null,
		"agi" : null,
		"mana" : null,
		"flags" : null
	}
}