{
	"key" : "enemy_wsl09_SICKLE",
	"subfolder" : "level09",
	"name" : "SICKLE",
	"description" : "Converted from a report",
	"gender" : "NONE",
	"race" : "MONSTER",
	"family" : "mfamily_wsl",
	"species" : "SICKLE",
	"appearance" : "4dir_ffl2_human",
	"portrait" : "battle_portraits/goblin.png",
	"meatEatLevel" : 10,
	"meatTargetLevel" : 9,
	"gp" : 1200,
	"equipped" : [ ],
	"stats" : {
		"hp" : null,
		"mhp" : null,
		"str" : null,
		"def" : null,
		"agi" : null,
		"mana" : null,
		"flags" : null
	}
}