{
	"key" : "enemy_dog00_WOLF",
	"subfolder" : "level00",
	"name" : "WOLF",
	"description" : "high danger",
	"gender" : "NONE",
	"race" : "MONSTER",
	"family" : "mfamily_dog",
	"species" : "WOLF",
	"appearance" : "4dir_ffl2_human",
	"portrait" : "battle_portraits/goblin.png",
	"meatEatLevel" : 1,
	"meatTargetLevel" : 0,
	"gp" : 40,
	"equipped" : [
		"abil_bite",
		"abil_oice"
	],
	"stats" : {
		"hp" : 40,
		"mhp" : 40,
		"str" : 9,
		"def" : 3,
		"agi" : 7,
		"mana" : 3,
		"flags" : [ ]
	}
}