{
	"key" : "enemy_jly15_HINOTAMA",
	"subfolder" : "level15",
	"name" : "HINOTAMA",
	"description" : "Converted from a report",
	"gender" : "NONE",
	"race" : "MONSTER",
	"family" : "mfamily_jly",
	"species" : "HINOTAMA",
	"appearance" : "4dir_ffl2_human",
	"portrait" : "battle_portraits/goblin.png",
	"meatEatLevel" : 15,
	"meatTargetLevel" : 15,
	"gp" : 0,
	"equipped" : [ ],
	"stats" : {
		"hp" : null,
		"mhp" : null,
		"str" : null,
		"def" : null,
		"agi" : null,
		"mana" : null,
		"flags" : null
	}
}