{
	"key" : "enemy_goo02_GUMMY",
	"subfolder" : "level02",
	"name" : "GUMMY",
	"description" : "Converted from a report",
	"gender" : "NONE",
	"race" : "MONSTER",
	"family" : "mfamily_goo",
	"species" : "GUMMY",
	"appearance" : "4dir_ffl2_human",
	"portrait" : "battle_portraits/goblin.png",
	"meatEatLevel" : 3,
	"meatTargetLevel" : 2,
	"gp" : 80,
	"equipped" : [
		"abil_melt",
		"abil_oweapon",
		"abil_xthunder"
	],
	"stats" : {
		"hp" : 82,
		"mhp" : 82,
		"str" : 3,
		"def" : 5,
		"agi" : 7,
		"mana" : 13,
		"flags" : [ ]
	}
}