{
	"key" : "enemy_wsp02_WISP",
	"subfolder" : "level02",
	"name" : "WISP",
	"description" : "Converted from a report",
	"gender" : "NONE",
	"race" : "MONSTER",
	"family" : "mfamily_wsp",
	"species" : "WISP",
	"appearance" : "4dir_ffl2_human",
	"portrait" : "battle_portraits/goblin.png",
	"meatEatLevel" : 3,
	"meatTargetLevel" : 2,
	"gp" : 80,
	"equipped" : [
		"abil_sunburst",
		"abil_claw"
	],
	"stats" : {
		"hp" : 60,
		"mhp" : 60,
		"str" : 4,
		"def" : 7,
		"agi" : 10,
		"mana" : 13,
		"flags" : [ ]
	}
}