{
	"key" : "enemy_dis12_T CELL",
	"subfolder" : "level12",
	"name" : "T CELL",
	"description" : "Converted from a report",
	"gender" : "NONE",
	"race" : "MONSTER",
	"family" : "mfamily_dis",
	"species" : "T CELL",
	"appearance" : "4dir_ffl2_human",
	"portrait" : "battle_portraits/goblin.png",
	"meatEatLevel" : 13,
	"meatTargetLevel" : 12,
	"gp" : 2400,
	"equipped" : [ ],
	"stats" : {
		"hp" : null,
		"mhp" : null,
		"str" : null,
		"def" : null,
		"agi" : null,
		"mana" : null,
		"flags" : null
	}
}