{
	"key" : "enemy_hrs10_UNICORN",
	"subfolder" : "level10",
	"name" : "UNICORN",
	"description" : "Converted from a report",
	"gender" : "NONE",
	"race" : "MONSTER",
	"family" : "mfamily_hrs",
	"species" : "UNICORN",
	"appearance" : "4dir_ffl2_human",
	"portrait" : "battle_portraits/goblin.png",
	"meatEatLevel" : 11,
	"meatTargetLevel" : 10,
	"gp" : 1600,
	"equipped" : [ ],
	"stats" : {
		"hp" : null,
		"mhp" : null,
		"str" : null,
		"def" : null,
		"agi" : null,
		"mana" : null,
		"flags" : null
	}
}