{
	"key" : "enemy_jly02_JELLYFISH",
	"subfolder" : "level02",
	"name" : "JELLYFISH",
	"description" : "Converted from a report",
	"gender" : "NONE",
	"race" : "MONSTER",
	"family" : "mfamily_jly",
	"species" : "JELLYFISH",
	"appearance" : "4dir_ffl2_human",
	"portrait" : "battle_portraits/goblin.png",
	"meatEatLevel" : 3,
	"meatTargetLevel" : 2,
	"gp" : 80,
	"equipped" : [
		"abil_tentacle",
		"abil_sting",
		"abil_poison"
	],
	"stats" : {
		"hp" : 84,
		"mhp" : 84,
		"str" : 5,
		"def" : 5,
		"agi" : 8,
		"mana" : 12,
		"flags" : [ ]
	}
}