{
	"key" : "recruit_guild",
	"subfolder" : "",
	"name" : "",
	"description" : "",
	"title" : "Recruit",
	"options" : [
		"chara_humanM",
		"chara_humanF",
		"chara_mutantM",
		"chara_mutantF",
		"chara_robot",
		"enemy_brd00_BUZZARD",
		"enemy_skl00_SKELETON",
		"enemy_fly00_ROACH"
	]
}