{
	"key" : "anim_cursor",
	"subfolder" : "",
	"name" : "",
	"description" : "",
	"file" : "cursor.png",
	"mode" : "REPEAT",
	"frameCount" : 2,
	"frameWidth" : 32,
	"frameHeight" : 32,
	"offX" : 0,
	"offY" : 0,
	"animSpeed" : 2,
	"hit1x" : 0,
	"hit1y" : 0,
	"hit2x" : 0,
	"hit2y" : 0,
	"attackBoxes" : [ ]
}