{
	"key" : "abil_sunburst",
	"subfolder" : "abil",
	"name" : "",
	"description" : "",
	"abilityName" : "SUNBURST",
	"type" : "ABILITY",
	"uses" : 20,
	"cost" : 0,
	"anim" : "banim_flame",
	"warhead" : {
		"clazz" : "net.wombatrpgs.sagaschema.rpg.warheads.EffectAttackMDO",
		"key" : "anon_CombatItemMDO_977923189"
	},
	"robostats" : {
		"stats" : [ ]
	}
}