{
	"key" : "abil_warning",
	"subfolder" : "abil",
	"name" : "",
	"description" : "",
	"abilityName" : "WARNING",
	"type" : "ABILITY",
	"uses" : 0,
	"cost" : 0,
	"anim" : "None",
	"warhead" : {
		"clazz" : "net.wombatrpgs.sagaschema.rpg.warheads.EffectPassiveMDO",
		"key" : "anon_CombatItemMDO_136560949"
	},
	"robostats" : {
		"stats" : [ ]
	}
}