{
	"key" : "pot_xpotion",
	"subfolder" : "potions",
	"name" : "",
	"description" : "",
	"abilityName" : "$TXPOTION",
	"type" : "ITEM",
	"uses" : 3,
	"cost" : 200,
	"anim" : "None",
	"warhead" : {
		"clazz" : "net.wombatrpgs.sagaschema.rpg.warheads.EffectHealMDO",
		"key" : "anon_CombatItemMDO_1090976191"
	},
	"robostats" : {
		"stats" : [ ]
	}
}