{
	"key" : "mfamily_got",
	"subfolder" : "",
	"name" : "got family",
	"description" : "Generated from transforms chart",
	"transformations" : [
		{
			"eat" : "mgroup_2",
			"result" : "mfamily_tmp"
		},
		{
			"eat" : "mgroup_3",
			"result" : "mfamily_got"
		},
		{
			"eat" : "mgroup_5",
			"result" : "mfamily_skl"
		},
		{
			"eat" : "mgroup_6",
			"result" : "mfamily_wsl"
		},
		{
			"eat" : "mgroup_7",
			"result" : "mfamily_goo"
		},
		{
			"eat" : "mgroup_8",
			"result" : "mfamily_wrd"
		},
		{
			"eat" : "mgroup_9",
			"result" : "mfamily_rat"
		},
		{
			"eat" : "mgroup_10",
			"result" : "mfamily_eph"
		},
		{
			"eat" : "mgroup_11",
			"result" : "mfamily_gol"
		},
		{
			"eat" : "mgroup_12",
			"result" : "mfamily_goo"
		}
	]
}