{
	"key" : "mfamily_wsp",
	"subfolder" : "",
	"name" : "wsp family",
	"description" : "Generated from transforms chart",
	"transformations" : [
		{
			"eat" : "mgroup_2",
			"result" : "mfamily_jly"
		},
		{
			"eat" : "mgroup_4",
			"result" : "mfamily_brd"
		},
		{
			"eat" : "mgroup_5",
			"result" : "mfamily_rat"
		},
		{
			"eat" : "mgroup_6",
			"result" : "mfamily_arm"
		},
		{
			"eat" : "mgroup_7",
			"result" : "mfamily_wrd"
		},
		{
			"eat" : "mgroup_8",
			"result" : "mfamily_snk"
		},
		{
			"eat" : "mgroup_9",
			"result" : "mfamily_gob"
		},
		{
			"eat" : "mgroup_11",
			"result" : "mfamily_wsl"
		},
		{
			"eat" : "mgroup_12",
			"result" : "mfamily_elf"
		}
	]
}