{
	"key" : "keymap_combined",
	"subfolder" : "",
	"name" : "",
	"description" : "",
	"bindings" : [
		{
			"keyCode" : "Z",
			"button" : "BUTTON_A"
		},
		{
			"keyCode" : "X",
			"button" : "BUTTON_B"
		},
		{
			"keyCode" : "C",
			"button" : "BUTTON_START"
		},
		{
			"keyCode" : "V",
			"button" : "BUTTON_SELECT"
		},
		{
			"keyCode" : "UP",
			"button" : "UP"
		},
		{
			"keyCode" : "DOWN",
			"button" : "DOWN"
		},
		{
			"keyCode" : "LEFT",
			"button" : "LEFT"
		},
		{
			"keyCode" : "RIGHT",
			"button" : "RIGHT"
		},
		{
			"keyCode" : "F4",
			"button" : "FULLSCREEN"
		},
		{
			"keyCode" : "SPACE",
			"button" : "BUTTON_A"
		},
		{
			"keyCode" : "BACK",
			"button" : "BUTTON_B"
		},
		{
			"keyCode" : "ESCAPE",
			"button" : "BUTTON_START"
		},
		{
			"keyCode" : "ENTER",
			"button" : "BUTTON_SELECT"
		},
		{
			"keyCode" : "F12",
			"button" : "FULLSCREEN"
		}
	]
}